\relax 
\citation{gamalielsson2012long}
\citation{lerner2001open}
\citation{schilling2012will}
\citation{gamalielsson2014sustainability}
\citation{nyman2014hackers}
\citation{nyman2011forking}
\citation{fogel2005producing}
\citation{weber2004success}
\citation{nyman2011forking}
\citation{fogel2005producing}
\citation{weber2004success}
\citation{laurent2004understanding}
\citation{gamalielsson2012long}
\citation{gamalielsson2014sustainability}
\citation{dabbish2012social}
\citation{vasilescugender}
\@writefile{toc}{\contentsline {section}{\numberline {I}Introduction}{1}}
\citation{robles2012comprehensive}
\citation{nyman2011fork}
\citation{viseur2012forks}
\citation{robles2012comprehensive}
\citation{nyman2011fork}
\citation{viseur2012forks}
\citation{gamalielsson2012long}
\citation{gamalielsson2014sustainability}
\citation{fang2009understanding}
\citation{zhou2012make}
\citation{zhou2011does}
\@writefile{toc}{\contentsline {section}{\numberline {II}Related Work}{2}}
\citation{raymond2001cathedral}
\citation{fung2012social}
\citation{fung2012social}
\@writefile{toc}{\contentsline {section}{\numberline {III}Forks}{3}}
\newlabel{sec:CF}{{III}{3}}
\@writefile{toc}{\contentsline {subsection}{\numberline {\unhbox \voidb@x \hbox {III-A}}Basic Terminology}{3}}
\@writefile{lof}{\contentsline {figure}{\numberline {1}{\ignorespaces Fork Tree, and Types of Forks on Pull Request History\relax }}{3}}
\providecommand*\caption@xref[2]{\@setref\relax\@undefined{#1}}
\newlabel{fig:ForkTree&Type}{{1}{3}}
\@writefile{toc}{\contentsline {subsection}{\numberline {\unhbox \voidb@x \hbox {III-B}}Rules for Classification}{3}}
\@writefile{toc}{\contentsline {subsection}{\numberline {\unhbox \voidb@x \hbox {III-C}}Nomenclature and Classification}{3}}
\citation{fung2012social}
\citation{kalliamvakou2014promises}
\citation{kalliamvakou2014promises}
\@writefile{lot}{\contentsline {table}{\numberline {I}{\ignorespaces Classification of Forks [\emph  {PR}: Pull Request; \emph  {MF}: Master Fork; \emph  {PF}: Primary Fork; \emph  {SF}: Secondary Fork]\relax }}{4}}
\newlabel{tab:forkClassification}{{I}{4}}
\@writefile{toc}{\contentsline {section}{\numberline {IV}Projects Ported vs Created on GitHub}{4}}
\@writefile{toc}{\contentsline {section}{\numberline {V}Methodology}{4}}
\newlabel{sec:meth}{{V}{4}}
\citation{Gousi13}
\citation{kalliamvakou2014promises}
\citation{vasilescugender}
\citation{gamalielsson2012long}
\citation{vasilescugender}
\@writefile{toc}{\contentsline {subsection}{\numberline {\unhbox \voidb@x \hbox {V-A}}Data Acquisition and Curation}{5}}
\@writefile{toc}{\contentsline {subsubsection}{\numberline {\unhbox \voidb@x \hbox {V-A}1}Preprocessing}{5}}
\@writefile{toc}{\contentsline {subsubsection}{\numberline {\unhbox \voidb@x \hbox {V-A}2}Identify projects with IDFs}{5}}
\@writefile{toc}{\contentsline {subsubsection}{\numberline {\unhbox \voidb@x \hbox {V-A}3}Classify projects on development history before creation date on GitHub}{5}}
\@writefile{toc}{\contentsline {subsection}{\numberline {\unhbox \voidb@x \hbox {V-B}}Developer Community Participation}{5}}
\@writefile{toc}{\contentsline {subsection}{\numberline {\unhbox \voidb@x \hbox {V-C}}Influence of Forking}{5}}
\citation{ray2014large}
\citation{vasilescugender}
\citation{kalliamvakou2014promises}
\citation{robles2012comprehensive}
\@writefile{lot}{\contentsline {table}{\numberline {II}{\ignorespaces Basic statistics of GitHub dataset\relax }}{6}}
\newlabel{tab:dataStats}{{II}{6}}
\@writefile{toc}{\contentsline {subsection}{\numberline {\unhbox \voidb@x \hbox {V-D}}Project Characteristics and Developer Community Participation}{6}}
\@writefile{toc}{\contentsline {subsubsection}{\numberline {\unhbox \voidb@x \hbox {V-D}1}Maturity}{6}}
\@writefile{toc}{\contentsline {subsubsection}{\numberline {\unhbox \voidb@x \hbox {V-D}2}Developer Community Size}{6}}
\@writefile{toc}{\contentsline {subsubsection}{\numberline {\unhbox \voidb@x \hbox {V-D}3}Owner}{6}}
\@writefile{toc}{\contentsline {subsubsection}{\numberline {\unhbox \voidb@x \hbox {V-D}4}Domain}{6}}
\@writefile{toc}{\contentsline {subsubsection}{\numberline {\unhbox \voidb@x \hbox {V-D}5}Popularity}{6}}
\@writefile{toc}{\contentsline {subsection}{\numberline {\unhbox \voidb@x \hbox {V-E}}Statistical Method}{6}}
\@writefile{toc}{\contentsline {section}{\numberline {VI}Results}{6}}
\@writefile{lot}{\contentsline {table}{\numberline {III}{\ignorespaces Classification of MF-PF pairs (or projects) developed \emph  {within} and \emph  {outside} GitHub as \emph  {decrease}, \emph  {increase}, and \emph  {no change} in sustainability of the developer community after forking. Each column entry is a summary (mean $\pm $ standard deviation) of MF-PF pairs having 3, 6, 9, and 12 months of existence before and after forking\relax }}{7}}
\newlabel{tab:grossInfluenceOfForking}{{III}{7}}
\@writefile{toc}{\contentsline {subsection}{\numberline {\unhbox \voidb@x \hbox {VI-A}}How forking influences the sustainability of the developer community participation in the original projects hosted on GitHub? Do projects ported to GitHub behave differently relative to projects created in GitHub?}{7}}
\@writefile{lot}{\contentsline {table}{\numberline {IV}{\ignorespaces Influence of project characteristics on emergence of significant PF. Team size segments on contributors' count: Small $<$ 11; 10 $<$ Medium $<$ 30; 30 $<$ Large\relax }}{7}}
\newlabel{tab:significantFork}{{IV}{7}}
\@writefile{toc}{\contentsline {subsection}{\numberline {\unhbox \voidb@x \hbox {VI-B}}How project characteristics at the time of forking influence \emph  {forkability} of the original project?}{7}}
\@writefile{toc}{\contentsline {subsubsection}{\numberline {\unhbox \voidb@x \hbox {VI-B}1}Maturity}{7}}
\newlabel{fig:ex0}{{2a}{8}}
\newlabel{sub@fig:ex0}{{a}{8}}
\newlabel{fig:ex1}{{2b}{8}}
\newlabel{sub@fig:ex1}{{b}{8}}
\newlabel{fig:ex2}{{2c}{8}}
\newlabel{sub@fig:ex2}{{c}{8}}
\@writefile{lof}{\contentsline {figure}{\numberline {2}{\ignorespaces Project instances of influence of forking on developer community participation\relax }}{8}}
\newlabel{fig:InfluenceOfForking}{{2}{8}}
\@writefile{toc}{\contentsline {subsubsection}{\numberline {\unhbox \voidb@x \hbox {VI-B}2}Community Size}{8}}
\@writefile{toc}{\contentsline {subsubsection}{\numberline {\unhbox \voidb@x \hbox {VI-B}3}Owner}{8}}
\@writefile{toc}{\contentsline {subsubsection}{\numberline {\unhbox \voidb@x \hbox {VI-B}4}Domain}{8}}
\@writefile{toc}{\contentsline {subsubsection}{\numberline {\unhbox \voidb@x \hbox {VI-B}5}Popularity}{8}}
\@writefile{toc}{\contentsline {subsection}{\numberline {\unhbox \voidb@x \hbox {VI-C}}How project characteristics at the time of forking influence the sustainability of the developer community participation?}{8}}
\@writefile{toc}{\contentsline {subsubsection}{\numberline {\unhbox \voidb@x \hbox {VI-C}1}Maturity}{8}}
\@writefile{toc}{\contentsline {subsubsection}{\numberline {\unhbox \voidb@x \hbox {VI-C}2}Community Size}{8}}
\citation{bird2009promises}
\citation{kalliamvakou2014promises}
\@writefile{lot}{\contentsline {table}{\numberline {V}{\ignorespaces Influence of project characteristics on decrease in developer community participation in the original project. Team size segments on contributors' count: Small $<$ 11; 10 $<$ Medium $<$ 30; 30 $<$ Large\relax }}{9}}
\newlabel{tab:less}{{V}{9}}
\@writefile{toc}{\contentsline {subsubsection}{\numberline {\unhbox \voidb@x \hbox {VI-C}3}Owner}{9}}
\@writefile{toc}{\contentsline {subsubsection}{\numberline {\unhbox \voidb@x \hbox {VI-C}4}Domain}{9}}
\@writefile{toc}{\contentsline {subsubsection}{\numberline {\unhbox \voidb@x \hbox {VI-C}5}Popularity}{9}}
\@writefile{toc}{\contentsline {section}{\numberline {VII}Threats to Validity}{9}}
\bibstyle{IEEEtran}
\bibdata{forkInGitHub}
\bibcite{gamalielsson2012long}{1}
\bibcite{lerner2001open}{2}
\bibcite{schilling2012will}{3}
\bibcite{gamalielsson2014sustainability}{4}
\bibcite{nyman2014hackers}{5}
\bibcite{nyman2011forking}{6}
\bibcite{fogel2005producing}{7}
\bibcite{weber2004success}{8}
\bibcite{laurent2004understanding}{9}
\bibcite{dabbish2012social}{10}
\bibcite{vasilescugender}{11}
\bibcite{robles2012comprehensive}{12}
\bibcite{nyman2011fork}{13}
\bibcite{viseur2012forks}{14}
\bibcite{fang2009understanding}{15}
\bibcite{zhou2012make}{16}
\bibcite{zhou2011does}{17}
\bibcite{raymond2001cathedral}{18}
\bibcite{fung2012social}{19}
\bibcite{kalliamvakou2014promises}{20}
\bibcite{Gousi13}{21}
\bibcite{ray2014large}{22}
\bibcite{bird2009promises}{23}
\@writefile{toc}{\contentsline {section}{\numberline {VIII}Implications and Conclusion}{10}}
\@writefile{toc}{\contentsline {section}{References}{10}}
