\relax 
\citation{gamalielsson2012long}
\citation{lerner2001open}
\citation{schilling2012will}
\citation{raymond2001cathedral}
\citation{fung2012social}
\citation{nyman2014hackers}
\citation{nyman2011forking}
\citation{fogel2005producing}
\citation{weber2004success}
\citation{fung2012social}
\citation{nyman2011forking}
\citation{fogel2005producing}
\citation{laurent2004understanding}
\citation{weber2004success}
\citation{gamalielsson2012long}
\citation{robles2012comprehensive}
\citation{viseur2012forks}
\citation{nyman2011fork}
\citation{gamalielsson2014sustainability}
\citation{fung2012social}
\citation{kalliamvakou2014promises}
\citation{fang2009understanding}
\citation{zhou2012make}
\citation{zhou2011does}
\@writefile{toc}{\contentsline {section}{\numberline {I}Introduction}{1}}
\citation{robles2012comprehensive}
\citation{robles2012comprehensive}
\citation{viseur2012forks}
\citation{nyman2011fork}
\citation{gamalielsson2012long}
\citation{gamalielsson2014sustainability}
\citation{zhou2011does}
\citation{zhou2012make}
\citation{robles2012comprehensive}
\@writefile{toc}{\contentsline {section}{\numberline {II}Related Work}{2}}
\@writefile{toc}{\contentsline {section}{\numberline {III}Terminology}{2}}
\@writefile{toc}{\contentsline {subsection}{\numberline {\unhbox \voidb@x \hbox {III-A}}Fork}{2}}
\citation{fung2012social}
\citation{gamalielsson2012long}
\citation{vasilescugender}
\citation{Gousi13}
\@writefile{toc}{\contentsline {subsection}{\numberline {\unhbox \voidb@x \hbox {III-B}}Community}{3}}
\@writefile{lof}{\contentsline {figure}{\numberline {1}{\ignorespaces Fork Tree, and Types of Forks on Pull Request History\relax }}{3}}
\newlabel{fig:ForkTree&Type}{{1}{3}}
\@writefile{toc}{\contentsline {section}{\numberline {IV}Methodology}{3}}
\@writefile{toc}{\contentsline {subsection}{\numberline {\unhbox \voidb@x \hbox {IV-A}}Data Acquisition and Curation}{3}}
\@writefile{toc}{\contentsline {subsubsection}{\numberline {\unhbox \voidb@x \hbox {IV-A}1}Preprocessing}{3}}
\@writefile{toc}{\contentsline {subsubsection}{\numberline {\unhbox \voidb@x \hbox {IV-A}2}Identify collaboratively developed projects}{3}}
\citation{vasilescugender}
\@writefile{lot}{\contentsline {table}{\numberline {I}{\ignorespaces Classification of Forks [\emph  {PR}: Pull Request; \emph  {MF}: Master Fork; \emph  {PF}: Primary Fork; \emph  {SF}: Secondary Fork]\relax }}{4}}
\providecommand*\caption@xref[2]{\@setref\relax\@undefined{#1}}
\newlabel{tab:forkClassification}{{I}{4}}
\@writefile{toc}{\contentsline {subsubsection}{\numberline {\unhbox \voidb@x \hbox {IV-A}3}Project development history outside GitHub}{4}}
\@writefile{toc}{\contentsline {subsection}{\numberline {\unhbox \voidb@x \hbox {IV-B}}Influence of Forking}{4}}
\@writefile{toc}{\contentsline {subsection}{\numberline {\unhbox \voidb@x \hbox {IV-C}}Influence of Project Characteristics on Developer Community Participation}{4}}
\citation{ray2014large}
\citation{vasilescugender}
\citation{kalliamvakou2014promises}
\citation{robles2012comprehensive}
\@writefile{toc}{\contentsline {subsubsection}{\numberline {\unhbox \voidb@x \hbox {IV-C}1}Project Maturity (Project Age)}{5}}
\@writefile{toc}{\contentsline {subsubsection}{\numberline {\unhbox \voidb@x \hbox {IV-C}2}Developer Community (Owner and Developer Community Size)}{5}}
\@writefile{toc}{\contentsline {subsubsection}{\numberline {\unhbox \voidb@x \hbox {IV-C}3}Domain}{5}}
\@writefile{toc}{\contentsline {subsubsection}{\numberline {\unhbox \voidb@x \hbox {IV-C}4}Popularity (Project popularity)}{5}}
\@writefile{toc}{\contentsline {subsection}{\numberline {\unhbox \voidb@x \hbox {IV-D}}Statistical Method}{5}}
\@writefile{toc}{\contentsline {section}{\numberline {V}Preliminary Analysis}{5}}
\@writefile{lot}{\contentsline {table}{\numberline {II}{\ignorespaces Basic statistics of GitHub dataset\relax }}{6}}
\newlabel{tab:dataStats}{{II}{6}}
\@writefile{toc}{\contentsline {section}{\numberline {VI}Analysis}{6}}
\@writefile{toc}{\contentsline {subsection}{\numberline {\unhbox \voidb@x \hbox {VI-A}}How forking influences the sustainability of the developer community in the original project? Does project development history outside GitHub influence their relationship?}{6}}
\@writefile{lot}{\contentsline {table}{\numberline {III}{\ignorespaces Classification of MF-PF pairs (or projects) developed \emph  {within} and \emph  {outside} GitHub as \emph  {decrease}, \emph  {increase}, and \emph  {no change} in sustainability of the developer community after forking. Each column entry is a summary (mean $\pm $ standard deviation) of MF-PF pairs having 3, 6, 9, and 12 months of existence before and after forking\relax }}{6}}
\newlabel{tab:grossInfluenceOfForking}{{III}{6}}
\newlabel{fig:ex0}{{2a}{7}}
\newlabel{sub@fig:ex0}{{a}{7}}
\newlabel{fig:ex1}{{2b}{7}}
\newlabel{sub@fig:ex1}{{b}{7}}
\newlabel{fig:ex2}{{2c}{7}}
\newlabel{sub@fig:ex2}{{c}{7}}
\@writefile{lof}{\contentsline {figure}{\numberline {2}{\ignorespaces Project instances of influence of forking on developer community participation\relax }}{7}}
\newlabel{fig:InfluenceOfForking}{{2}{7}}
\@writefile{lot}{\contentsline {table}{\numberline {IV}{\ignorespaces Influence of project characteristics on emergence of significant PF. Team size segments on contributors' count: Small $<$ 11; 10 $<$ Medium $<$ 30; 30 $<$ Large\relax }}{7}}
\newlabel{tab:significantFork}{{IV}{7}}
\@writefile{toc}{\contentsline {subsection}{\numberline {\unhbox \voidb@x \hbox {VI-B}}How project characteristics at the time of forking influence \emph  {forkability}, and the sustainability of the developer community in the original project?}{7}}
\@writefile{toc}{\contentsline {subsubsection}{\numberline {\unhbox \voidb@x \hbox {VI-B}1}Are forks from mature MFs likely to receive significant community participation?}{7}}
\@writefile{toc}{\contentsline {subsubsection}{\numberline {\unhbox \voidb@x \hbox {VI-B}2}How the influence of the owner impacts the forkability of original project? Does increasing team size spawns forking?}{7}}
\@writefile{toc}{\contentsline {subsubsection}{\numberline {\unhbox \voidb@x \hbox {VI-B}3}Is significant forking more common in some domains compared to others?}{8}}
\@writefile{toc}{\contentsline {subsubsection}{\numberline {\unhbox \voidb@x \hbox {VI-B}4}Is significant forking more common in popular MFs?}{8}}
\@writefile{toc}{\contentsline {subsubsection}{\numberline {\unhbox \voidb@x \hbox {VI-B}5}Do significant forks from mature MFs influence developer community participation in MF?}{8}}
\@writefile{toc}{\contentsline {subsubsection}{\numberline {\unhbox \voidb@x \hbox {VI-B}6}Does the influence of owner binds developer community participation in MF? How forking influence developer community participation in large teams?}{8}}
\@writefile{toc}{\contentsline {subsubsection}{\numberline {\unhbox \voidb@x \hbox {VI-B}7}Are MFs in some domains more affected by forking than others in terms of the sustainability of the developer community?}{8}}
\@writefile{toc}{\contentsline {subsubsection}{\numberline {\unhbox \voidb@x \hbox {VI-B}8}How does the popularity of MF and PF affect developer community participation in MF?}{8}}
\@writefile{toc}{\contentsline {subsubsection}{\numberline {\unhbox \voidb@x \hbox {VI-B}9}Additional Inferences}{8}}
\@writefile{toc}{\contentsline {section}{\numberline {VII}Conclusion}{8}}
\bibstyle{IEEEtran}
\bibdata{forkInGitHub}
\bibcite{gamalielsson2012long}{1}
\bibcite{lerner2001open}{2}
\bibcite{schilling2012will}{3}
\bibcite{raymond2001cathedral}{4}
\bibcite{fung2012social}{5}
\bibcite{nyman2014hackers}{6}
\bibcite{nyman2011forking}{7}
\bibcite{fogel2005producing}{8}
\bibcite{weber2004success}{9}
\bibcite{laurent2004understanding}{10}
\bibcite{robles2012comprehensive}{11}
\bibcite{viseur2012forks}{12}
\bibcite{nyman2011fork}{13}
\bibcite{gamalielsson2014sustainability}{14}
\bibcite{kalliamvakou2014promises}{15}
\bibcite{fang2009understanding}{16}
\bibcite{zhou2012make}{17}
\bibcite{zhou2011does}{18}
\bibcite{vasilescugender}{19}
\bibcite{Gousi13}{20}
\bibcite{ray2014large}{21}
\@writefile{lot}{\contentsline {table}{\numberline {V}{\ignorespaces Influence of project characteristics on decrease in developer community participation in the original project. Team size segments on contributors' count: Small $<$ 11; 10 $<$ Medium $<$ 30; 30 $<$ Large\relax }}{9}}
\newlabel{tab:less}{{V}{9}}
\@writefile{toc}{\contentsline {section}{References}{9}}
