\relax 
\citation{gamalielsson2012long}
\citation{lerner2001open}
\citation{schilling2012will}
\citation{gamalielsson2014sustainability}
\citation{nyman2014hackers}
\citation{nyman2011forking}
\citation{fogel2005producing}
\citation{weber2004success}
\citation{nyman2011forking}
\citation{fogel2005producing}
\citation{weber2004success}
\citation{laurent2004understanding}
\citation{gamalielsson2012long}
\citation{gamalielsson2014sustainability}
\citation{dabbish2012social}
\citation{vasilescugender}
\@writefile{toc}{\contentsline {section}{\numberline {I}Introduction}{1}}
\citation{robles2012comprehensive}
\citation{nyman2011fork}
\citation{viseur2012forks}
\citation{robles2012comprehensive}
\citation{nyman2011fork}
\citation{viseur2012forks}
\citation{gamalielsson2012long}
\citation{gamalielsson2014sustainability}
\citation{raymond2001cathedral}
\@writefile{toc}{\contentsline {section}{\numberline {II}Related Work}{2}}
\@writefile{toc}{\contentsline {subsection}{\numberline {\unhbox \voidb@x \hbox {II-A}}Reasons of Forking}{2}}
\@writefile{toc}{\contentsline {subsection}{\numberline {\unhbox \voidb@x \hbox {II-B}}Outcomes of Forking}{2}}
\@writefile{toc}{\contentsline {subsection}{\numberline {\unhbox \voidb@x \hbox {II-C}}Dynamics of developer community around forking}{2}}
\citation{fung2012social}
\citation{fung2012social}
\citation{fung2012social}
\@writefile{lof}{\contentsline {figure}{\numberline {1}{\ignorespaces Fork Tree, and Types of Forks on Pull Request History\relax }}{3}}
\providecommand*\caption@xref[2]{\@setref\relax\@undefined{#1}}
\newlabel{fig:ForkTree&Type}{{1}{3}}
\@writefile{toc}{\contentsline {section}{\numberline {III}Forks}{3}}
\newlabel{sec:CF}{{III}{3}}
\@writefile{toc}{\contentsline {subsection}{\numberline {\unhbox \voidb@x \hbox {III-A}}Basic Terminology}{3}}
\@writefile{toc}{\contentsline {subsection}{\numberline {\unhbox \voidb@x \hbox {III-B}}Rules for Classification}{3}}
\@writefile{toc}{\contentsline {subsection}{\numberline {\unhbox \voidb@x \hbox {III-C}}Nomenclature and Classification}{3}}
\citation{kalliamvakou2014promises}
\citation{kalliamvakou2014promises}
\citation{Gousi13}
\@writefile{lot}{\contentsline {table}{\numberline {I}{\ignorespaces Classification of Forks [\emph  {PR}: Pull Request; \emph  {MF}: Master Fork; \emph  {PF}: Primary Fork; \emph  {SF}: Secondary Fork]\relax }}{4}}
\newlabel{tab:forkClassification}{{I}{4}}
\@writefile{toc}{\contentsline {section}{\numberline {IV}Projects Ported vs Created on GitHub}{4}}
\@writefile{toc}{\contentsline {section}{\numberline {V}Methodology}{4}}
\newlabel{sec:meth}{{V}{4}}
\@writefile{toc}{\contentsline {subsection}{\numberline {\unhbox \voidb@x \hbox {V-A}}Data Acquisition and Curation}{4}}
\citation{kalliamvakou2014promises}
\citation{vasilescugender}
\citation{gamalielsson2012long}
\citation{vasilescugender}
\@writefile{toc}{\contentsline {subsubsection}{\numberline {\unhbox \voidb@x \hbox {V-A}1}Preprocessing}{5}}
\@writefile{toc}{\contentsline {subsubsection}{\numberline {\unhbox \voidb@x \hbox {V-A}2}Identify projects with IDFs}{5}}
\@writefile{toc}{\contentsline {subsubsection}{\numberline {\unhbox \voidb@x \hbox {V-A}3}Classify projects on development history before creation date on GitHub}{5}}
\@writefile{toc}{\contentsline {subsection}{\numberline {\unhbox \voidb@x \hbox {V-B}}Developer Community Participation}{5}}
\@writefile{toc}{\contentsline {subsection}{\numberline {\unhbox \voidb@x \hbox {V-C}}Influence of Forking}{5}}
\citation{kalliamvakou2014promises}
\citation{robles2012comprehensive}
\@writefile{lot}{\contentsline {table}{\numberline {II}{\ignorespaces Basic statistics of GitHub dataset\relax }}{6}}
\newlabel{tab:dataStats}{{II}{6}}
\@writefile{toc}{\contentsline {section}{\numberline {VI}Results}{6}}
\@writefile{toc}{\contentsline {subsection}{\numberline {\unhbox \voidb@x \hbox {VI-A}}How forking influences the sustainability of the developer community participation in the original projects hosted on GitHub? Do projects ported to GitHub behave differently relative to projects created in GitHub?}{6}}
\@writefile{lot}{\contentsline {table}{\numberline {III}{\ignorespaces Classification of MF-PF pairs (or projects) developed \emph  {within} and \emph  {outside} GitHub as \emph  {decrease}, \emph  {increase}, and \emph  {no change} in sustainability of the developer community after forking. Each column entry is a summary (mean $\pm $ standard deviation) of MF-PF pairs having 3, 6, 9, and 12 months of existence before and after forking\relax }}{6}}
\newlabel{tab:grossInfluenceOfForking}{{III}{6}}
\citation{bird2009promises}
\citation{kalliamvakou2014promises}
\bibstyle{IEEEtran}
\bibdata{forkInGitHub}
\bibcite{gamalielsson2012long}{1}
\bibcite{lerner2001open}{2}
\bibcite{schilling2012will}{3}
\bibcite{gamalielsson2014sustainability}{4}
\bibcite{nyman2014hackers}{5}
\bibcite{nyman2011forking}{6}
\bibcite{fogel2005producing}{7}
\bibcite{weber2004success}{8}
\bibcite{laurent2004understanding}{9}
\bibcite{dabbish2012social}{10}
\bibcite{vasilescugender}{11}
\bibcite{robles2012comprehensive}{12}
\newlabel{fig:ex0}{{2a}{7}}
\newlabel{sub@fig:ex0}{{a}{7}}
\newlabel{fig:ex1}{{2b}{7}}
\newlabel{sub@fig:ex1}{{b}{7}}
\newlabel{fig:ex2}{{2c}{7}}
\newlabel{sub@fig:ex2}{{c}{7}}
\@writefile{lof}{\contentsline {figure}{\numberline {2}{\ignorespaces Project instances of influence of forking on developer community participation\relax }}{7}}
\newlabel{fig:InfluenceOfForking}{{2}{7}}
\@writefile{toc}{\contentsline {section}{\numberline {VII}Threats to Validity}{7}}
\@writefile{toc}{\contentsline {section}{\numberline {VIII}Implications and Future Work}{7}}
\@writefile{toc}{\contentsline {section}{References}{7}}
\bibcite{nyman2011fork}{13}
\bibcite{viseur2012forks}{14}
\bibcite{raymond2001cathedral}{15}
\bibcite{fung2012social}{16}
\bibcite{kalliamvakou2014promises}{17}
\bibcite{Gousi13}{18}
\bibcite{bird2009promises}{19}
